Análisis de chiste
…
5 Latent Dirichlet allocation (LAD) topic models

LDA es un método particularmente popular para ajustar un topic models. Con mil_dtm y pint_dtm podemos pasar un LDA topic models para cada data set. Seleccionaremos 10 topics al aplicar la función LDA (k = 10).

pint_lda <- LDA(pint_dtm, k = 10, control = list(seed = 284))

mil_lda <- LDA(mil_dtm, k = 10, control = list(seed = 284))

Usamos la función tidy para sacar las probabilidad de cada palabra por cada tema, llamado también \(\beta\), del modelo.

pint_topics <- tidy(pint_lda, matrix = "beta")
pint_topics

## # A tibble: 172,820 x 3
##    topic term           beta
##    <int> <chr>         <dbl>
##  1     1 amarganaa 6.52e-267
##  2     2 amarganaa 9.12e-266
##  3     3 amarganaa 6.64e-265
##  4     4 amarganaa 6.18e- 15
##  5     5 amarganaa 1.83e-265
##  6     6 amarganaa 2.66e-254
##  7     7 amarganaa 5.71e-268
##  8     8 amarganaa 1.65e-259
##  9     9 amarganaa 2.08e-273
## 10    10 amarganaa 1.72e-  4
## # … with 172,810 more rows

mil_topics <- tidy(mil_lda, matrix = "beta")
mil_topics

## # A tibble: 123,080 x 3
##    topic term       beta
##    <int> <chr>     <dbl>
##  1     1 adiós 9.34e-299
##  2     2 adiós 1.61e-114
##  3     3 adiós 3.41e-  4
##  4     4 adiós 1.30e- 74
##  5     5 adiós 1.58e- 74
##  6     6 adiós 1.92e- 74
##  7     7 adiós 3.86e-268
##  8     8 adiós 1.76e- 74
##  9     9 adiós 9.76e-270
## 10    10 adiós 2.07e-  4
## # … with 123,070 more rows
…
Una vez visualizadas las palabras que tienen mayor \(\beta\) en cada tema, veamos cómo podemos relacionar las palabras de cada chiste con las categorías.

Empezamos por clasificar cada palabra en un único tema. Cada palabra tiene un índice \(\beta\) correspondiente a cada tema, asignaremos que una palabra está dentro del tema si tiene el valor \(\beta\) más grande de todos.

pint_topics_words <- pint_topics %>%
  group_by(term) %>%
  filter(beta == max(beta))

pint_topics_words

## # A tibble: 17,282 x 3
## # Groups:   term [17,282]
##    topic term          beta
##    <int> <chr>        <dbl>
##  1    10 amarganaa 0.000172
##  2    10 azucar    0.00120 
##  3     6 cafe      0.00131 
##  4     6 dice      0.0450  
##  5    10 loko      0.000172
##  6     4 seria     0.000553
##  7    10 sin       0.000635
##  8    10 ver       0.00312 
##  9     4 vida      0.00550 
## 10     2 ale       0.000297
## # … with 17,272 more rows

mil_topics_words <- mil_topics %>%
  group_by(term) %>%
  filter(beta == max(beta))

mil_topics_words

## # A tibble: 12,308 x 3
## # Groups:   term [12,308]
##    topic term         beta
##    <int> <chr>       <dbl>
##  1     3 adiós    0.000341
##  2    10 bar      0.00527 
##  3     1 borracho 0.00280 
##  4     7 cállate  0.000772
##  5     4 calle    0.00317 
##  6     9 camina   0.000368
##  7     5 contesta 0.00553 
##  8     1 cruza    0.000478
##  9    10 fea      0.00235 
## 10     3 gira     0.000341
## # … with 12,298 more rows
…
